Calculate entropy network — calc_entropy_net • entropynet
…
    Value

    Examples

# Run association net on the virus-host dataset
calc_entropy_net(
  pairs = virus_host,
  id_col = virus_id,
  target_col = host_id,
  parallel = FALSE,
  subset_pairs = 100
)
#> # A tibble: 100 x 3
#>    a                                    b                               strength
#>    <chr>                                <chr>                              <dbl>
#>  1 Human papillomavirus 60              Manzanilla virus              0.00000254
#>  2 Caprine arthritis encephalitis virus Manzanilla virus              0.00000509
#>  3 Bovine ephemeral fever virus         Wesselsbron virus             0.00313   
#>  4 Human papillomavirus 53              Swinepox virus                0.00000254
#>  5 Lake Victoria marburgvirus           Murine adenovirus A           0.0000179 
#>  6 Australian bat lyssavirus            Cercopithecine herpesvirus 16 0.000116  
#>  7 Hippotragine herpesvirus 1           Rubella virus                 0.00000254
#>  8 California encephalitis virus        Human parainfluenza virus 1   0.00421   
#>  9 Tamana bat virus                     Equine adenovirus A           0.0000333 
#> 10 Japanese encephalitis virus          Moloney murine sarcoma virus  0.0000672 
#> # … with 90 more rows

# Run count-based association for vir-clasp rna-seq dataset
calc_entropy_net(
  pairs = virclasp_chikv,
  id_col = id,
  target_col = condition,
  count_col = count,
  parallel = FALSE,
  subset_pairs = 100
)
#> # A tibble: 100 x 3
#>    a           b           strength
#>    <chr>       <chr>          <dbl>
#>  1 RFT1_HUMAN  MBB1A_HUMAN   1.94  
#>  2 SAHH2_HUMAN SAE2_HUMAN    0.969 
#>  3 PSB5_HUMAN  TGM3_HUMAN    0.0766
#>  4 OST48_HUMAN OTUD4_HUMAN   0.503 
#>  5 GLYG_HUMAN  KPRP_HUMAN    1.15  
#>  6 NUP93_HUMAN APBB2_HUMAN   0.0786
#>  7 ARHGB_HUMAN AUTS2_HUMAN   0.0839
#>  8 LTN1_HUMAN  CMTR1_HUMAN   2.74  
#>  9 SYMC_HUMAN  PLPL6_HUMAN   1.70  
#> 10 ABCB7_HUMAN PSMF1_HUMAN   0.595 
#> # … with 90 more rows
…
