Simulate a sticky association network — simulate_sticky_association_network • associationsubgraphs
…
#>       id stickiness cluster
#>    <int>      <dbl>   <int>
#>  1     1     0.0913       1
#>  2     2     0.854        3
#>  3     3     1.07         3
#>  4     4     0.521        1
#>  5     5     1.08         2
#>  6     6     0.170        3
#>  7     7     1.04         3
#>  8     8     2.60         3
#>  9     9     0.773        2
#> 10    10     1.81         1
#> 
#> $associations
#> # A tibble: 45 x 4
#>        a     b same_cluster strength
#>    <int> <int> <lgl>           <dbl>
#>  1     1     2 FALSE         0.0328 
#>  2     1     3 FALSE         0.0487 
#>  3     1     4 TRUE          0.231  
#>  4     1     5 FALSE         0.114  
#>  5     1     6 FALSE         0.0815 
#>  6     1     7 FALSE         0.0506 
#>  7     1     8 FALSE         0.142  
#>  8     1     9 FALSE         0.00262
#>  9     1    10 TRUE          0.397  
#> 10     2     3 TRUE          0.358  
#> # … with 35 more rows
…
